{
	"info": {
		"_postman_id": "e2b0068b-6925-4442-a928-d577125ffedb",
		"name": "SpringbootMVC",
		"schema": "https://schema.getpostman.com/json/collection/v2.1.0/collection.json"
	},
	"item": [
		{
			"name": "Pais",
			"item": [
				{
					"name": "CriaNovoPais",
					"request": {
						"method": "POST",
						"header": [],
						"body": {
							"mode": "raw",
							"raw": "{\n    \"nome\": \"Marco antoiono\"\n}",
							"options": {
								"raw": {
									"language": "json"
								}
							}
						},
						"url": {
							"raw": "{{url}}/api/pais/novo",
							"host": [
								"{{url}}"
							],
							"path": [
								"api",
								"pais",
								"novo"
							]
						}
					},
					"response": []
				},
				{
					"name": "getTodosPais",
					"request": {
						"method": "GET",
						"header": [],
						"url": {
							"raw": "{{url}}/api/pais/todos",
							"host": [
								"{{url}}"
							],
							"path": [
								"api",
								"pais",
								"todos"
							]
						}
					},
					"response": []
				},
				{
					"name": "getPaisPorId",
					"request": {
						"method": "GET",
						"header": [],
						"url": {
							"raw": "{{url}}/api/pais/ver/2",
							"host": [
								"{{url}}"
							],
							"path": [
								"api",
								"pais",
								"ver",
								"2"
							]
						}
					},
					"response": []
				},
				{
					"name": "UpdatePais",
					"request": {
						"method": "PUT",
						"header": [],
						"body": {
							"mode": "raw",
							"raw": "{\n    \"nome\": \"Brazil\"\n}",
							"options": {
								"raw": {
									"language": "json"
								}
							}
						},
						"url": {
							"raw": "{{url}}/api/pais/editar/1",
							"host": [
								"{{url}}"
							],
							"path": [
								"api",
								"pais",
								"editar",
								"1"
							]
						}
					},
					"response": []
				}
			],
			"protocolProfileBehavior": {}
		},
		{
			"name": "Estado",
			"item": [
				{
					"name": "CriaNovoEstado",
					"request": {
						"method": "POST",
						"header": [],
						"body": {
							"mode": "raw",
							"raw": "{\n    \"nome\": \"Teste\"\n}",
							"options": {
								"raw": {
									"language": "json"
								}
							}
						},
						"url": {
							"raw": "{{url}}/api/estado/novo",
							"host": [
								"{{url}}"
							],
							"path": [
								"api",
								"estado",
								"novo"
							]
						}
					},
					"response": []
				},
				{
					"name": "getTodosEstado",
					"request": {
						"method": "GET",
						"header": [],
						"url": {
							"raw": "{{url}}/api/estado/todos",
							"host": [
								"{{url}}"
							],
							"path": [
								"api",
								"estado",
								"todos"
							]
						}
					},
					"response": []
				},
				{
					"name": "getEstadoPorId",
					"request": {
						"method": "GET",
						"header": [],
						"url": {
							"raw": "http://localhost:8080/api/estado/ver/1",
							"protocol": "http",
							"host": [
								"localhost"
							],
							"port": "8080",
							"path": [
								"api",
								"estado",
								"ver",
								"1"
							]
						}
					},
					"response": []
				},
				{
					"name": "UpdateEstado",
					"request": {
						"method": "PUT",
						"header": [],
						"body": {
							"mode": "raw",
							"raw": "{\n    \"nome\": \"Teste\"\n}",
							"options": {
								"raw": {
									"language": "json"
								}
							}
						},
						"url": {
							"raw": "http://localhost:8080/api/estado/editar/1",
							"protocol": "http",
							"host": [
								"localhost"
							],
							"port": "8080",
							"path": [
								"api",
								"estado",
								"editar",
								"1"
							]
						}
					},
					"response": []
				}
			],
			"protocolProfileBehavior": {}
		},
		{
			"name": "Cidade",
			"item": [
				{
					"name": "CriaNovoCidade",
					"request": {
						"method": "POST",
						"header": [],
						"body": {
							"mode": "raw",
							"raw": "{\n    \"nome\": \"Brasil\"\n}",
							"options": {
								"raw": {
									"language": "json"
								}
							}
						},
						"url": {
							"raw": "{{url}}/api/cidade/novo",
							"host": [
								"{{url}}"
							],
							"path": [
								"api",
								"cidade",
								"novo"
							]
						}
					},
					"response": []
				},
				{
					"name": "getTodosCidade",
					"request": {
						"method": "GET",
						"header": [],
						"url": {
							"raw": "{{url}}/api/cidade/todos",
							"host": [
								"{{url}}"
							],
							"path": [
								"api",
								"cidade",
								"todos"
							]
						}
					},
					"response": []
				},
				{
					"name": "getCidadePorId",
					"request": {
						"method": "GET",
						"header": [],
						"url": {
							"raw": "{{url}}/api/cidade/ver/1",
							"host": [
								"{{url}}"
							],
							"path": [
								"api",
								"cidade",
								"ver",
								"1"
							]
						}
					},
					"response": []
				},
				{
					"name": "UpdateCidade",
					"request": {
						"method": "PUT",
						"header": [],
						"body": {
							"mode": "raw",
							"raw": "{\n    \"nome\": \"Teste123\"\n}",
							"options": {
								"raw": {
									"language": "json"
								}
							}
						},
						"url": {
							"raw": "{{url}}/api/cidade/editar/1",
							"host": [
								"{{url}}"
							],
							"path": [
								"api",
								"cidade",
								"editar",
								"1"
							]
						}
					},
					"response": []
				}
			],
			"protocolProfileBehavior": {}
		},
		{
			"name": "Endereco",
			"item": [
				{
					"name": "CriaNovoEndereco",
					"request": {
						"method": "POST",
						"header": [],
						"body": {
							"mode": "raw",
							"raw": "{\n    \"numero\": \"321\"\n}",
							"options": {
								"raw": {
									"language": "json"
								}
							}
						},
						"url": {
							"raw": "{{url}}/api/endereco/novo",
							"host": [
								"{{url}}"
							],
							"path": [
								"api",
								"endereco",
								"novo"
							]
						}
					},
					"response": []
				},
				{
					"name": "getTodosEndereco",
					"request": {
						"method": "GET",
						"header": [],
						"url": {
							"raw": "{{url}}/api/endereco/todos",
							"host": [
								"{{url}}"
							],
							"path": [
								"api",
								"endereco",
								"todos"
							]
						}
					},
					"response": []
				},
				{
					"name": "getEnderecoPorId",
					"request": {
						"method": "GET",
						"header": [],
						"url": {
							"raw": "{{url}}/api/endereco/ver/1",
							"host": [
								"{{url}}"
							],
							"path": [
								"api",
								"endereco",
								"ver",
								"1"
							]
						}
					},
					"response": []
				},
				{
					"name": "UpdateEndereco",
					"request": {
						"method": "PUT",
						"header": [],
						"body": {
							"mode": "raw",
							"raw": "{\n    \"numero\": \"3212\"\n}",
							"options": {
								"raw": {
									"language": "json"
								}
							}
						},
						"url": {
							"raw": "{{url}}/api/endereco/editar/1",
							"host": [
								"{{url}}"
							],
							"path": [
								"api",
								"endereco",
								"editar",
								"1"
							]
						}
					},
					"response": []
				}
			],
			"protocolProfileBehavior": {}
		},
		{
			"name": "Banco",
			"item": [
				{
					"name": "CriaNovoBanco",
					"request": {
						"method": "POST",
						"header": [],
						"body": {
							"mode": "raw",
							"raw": "{\n    \"nome\": \"BB\"\n}",
							"options": {
								"raw": {
									"language": "json"
								}
							}
						},
						"url": {
							"raw": "{{url}}/api/banco/novo",
							"host": [
								"{{url}}"
							],
							"path": [
								"api",
								"banco",
								"novo"
							]
						}
					},
					"response": []
				},
				{
					"name": "getTodosBanco",
					"request": {
						"method": "GET",
						"header": [],
						"url": {
							"raw": "{{url}}/api/banco/todos",
							"host": [
								"{{url}}"
							],
							"path": [
								"api",
								"banco",
								"todos"
							]
						}
					},
					"response": []
				},
				{
					"name": "getBancoPorId",
					"request": {
						"method": "GET",
						"header": [],
						"url": {
							"raw": "{{url}}/api/banco/ver/1",
							"host": [
								"{{url}}"
							],
							"path": [
								"api",
								"banco",
								"ver",
								"1"
							]
						}
					},
					"response": []
				},
				{
					"name": "UpdateBanco",
					"request": {
						"method": "PUT",
						"header": [],
						"body": {
							"mode": "raw",
							"raw": "{\n    \"nome\": \"bacalhau bartolomeu\"\n}",
							"options": {
								"raw": {
									"language": "json"
								}
							}
						},
						"url": {
							"raw": "{{url}}/api/banco/editar/1",
							"host": [
								"{{url}}"
							],
							"path": [
								"api",
								"banco",
								"editar",
								"1"
							]
						}
					},
					"response": []
				}
			],
			"protocolProfileBehavior": {}
		},
		{
			"name": "Usuario",
			"item": [
				{
					"name": "CriaNovoUsuario",
					"request": {
						"method": "POST",
						"header": [],
						"body": {
							"mode": "raw",
							"raw": "{\n    \"nome\": \"bagre\"\n}",
							"options": {
								"raw": {
									"language": "json"
								}
							}
						},
						"url": {
							"raw": "{{url}}/api/usuario/novo",
							"host": [
								"{{url}}"
							],
							"path": [
								"api",
								"usuario",
								"novo"
							]
						}
					},
					"response": []
				},
				{
					"name": "getTodosUsuario",
					"request": {
						"method": "GET",
						"header": [],
						"url": {
							"raw": "{{url}}/api/usuario/todos",
							"host": [
								"{{url}}"
							],
							"path": [
								"api",
								"usuario",
								"todos"
							]
						}
					},
					"response": []
				},
				{
					"name": "getUsuarioPorId",
					"request": {
						"method": "GET",
						"header": [],
						"url": {
							"raw": "{{url}}/api/usuario/ver/1",
							"host": [
								"{{url}}"
							],
							"path": [
								"api",
								"usuario",
								"ver",
								"1"
							]
						}
					},
					"response": []
				},
				{
					"name": "UpdateUsuario",
					"request": {
						"method": "PUT",
						"header": [],
						"body": {
							"mode": "raw",
							"raw": "{\n    \"nome\": \"Ariovaldo\"\n}",
							"options": {
								"raw": {
									"language": "json"
								}
							}
						},
						"url": {
							"raw": "{{url}}/api/usuario/editar/1",
							"host": [
								"{{url}}"
							],
							"path": [
								"api",
								"usuario",
								"editar",
								"1"
							]
						}
					},
					"response": []
				}
			],
			"event": [
				{
					"listen": "prerequest",
					"script": {
						"id": "da26394c-d843-4834-a2da-3adf86156089",
						"type": "text/javascript",
						"exec": [
							""
						]
					}
				},
				{
					"listen": "test",
					"script": {
						"id": "f3fb0f71-c5f1-4987-838c-1f46988bd3c1",
						"type": "text/javascript",
						"exec": [
							""
						]
					}
				}
			],
			"protocolProfileBehavior": {}
		},
		{
			"name": "Agencia",
			"item": [
				{
					"name": "CriaNovAoAgencia",
					"request": {
						"method": "POST",
						"header": [],
						"body": {
							"mode": "raw",
							"raw": "{\n    \"nome\": \"agencia pe de pano\"\n}",
							"options": {
								"raw": {
									"language": "json"
								}
							}
						},
						"url": {
							"raw": "{{url}}/api/agencia/novo",
							"host": [
								"{{url}}"
							],
							"path": [
								"api",
								"agencia",
								"novo"
							]
						}
					},
					"response": []
				},
				{
					"name": "getTodosAgencia",
					"request": {
						"method": "GET",
						"header": [],
						"url": {
							"raw": "{{url}}/api/agencia/todos",
							"host": [
								"{{url}}"
							],
							"path": [
								"api",
								"agencia",
								"todos"
							]
						}
					},
					"response": []
				},
				{
					"name": "getAgenciaPorId",
					"request": {
						"method": "GET",
						"header": [],
						"url": {
							"raw": "{{url}}/api/agencia/ver/1",
							"host": [
								"{{url}}"
							],
							"path": [
								"api",
								"agencia",
								"ver",
								"1"
							]
						}
					},
					"response": []
				},
				{
					"name": "UpdateAgencia",
					"request": {
						"method": "PUT",
						"header": [],
						"body": {
							"mode": "raw",
							"raw": "{\n    \"codigo\": \"666\",\n    \"nome\": \"Agencia Marcolino\"\n}",
							"options": {
								"raw": {
									"language": "json"
								}
							}
						},
						"url": {
							"raw": "{{url}}/api/agencia/editar/1",
							"host": [
								"{{url}}"
							],
							"path": [
								"api",
								"agencia",
								"editar",
								"1"
							]
						}
					},
					"response": []
				}
			],
			"event": [
				{
					"listen": "prerequest",
					"script": {
						"id": "e227ee37-e444-4536-afe2-77a8426f24a6",
						"type": "text/javascript",
						"exec": [
							""
						]
					}
				},
				{
					"listen": "test",
					"script": {
						"id": "90d126ea-3bed-45ad-a8d1-3984016ac4a6",
						"type": "text/javascript",
						"exec": [
							""
						]
					}
				}
			],
			"protocolProfileBehavior": {}
		},
		{
			"name": "Consolidacao",
			"item": [
				{
					"name": "CriaNovoConsolidacao",
					"request": {
						"method": "POST",
						"header": [],
						"body": {
							"mode": "raw",
							"raw": "{\n    \"saldoAtual\": 666\n}",
							"options": {
								"raw": {
									"language": "json"
								}
							}
						},
						"url": {
							"raw": "{{url}}/api/consolidacao/novo",
							"host": [
								"{{url}}"
							],
							"path": [
								"api",
								"consolidacao",
								"novo"
							]
						}
					},
					"response": []
				},
				{
					"name": "getTodosConsolidacao",
					"request": {
						"method": "GET",
						"header": [],
						"url": {
							"raw": "{{url}}/api/consolidacao/todos",
							"host": [
								"{{url}}"
							],
							"path": [
								"api",
								"consolidacao",
								"todos"
							]
						}
					},
					"response": []
				},
				{
					"name": "getConsolidacaoPorId",
					"request": {
						"method": "GET",
						"header": [],
						"url": {
							"raw": "{{url}}/api/consolidacao/ver/1",
							"host": [
								"{{url}}"
							],
							"path": [
								"api",
								"consolidacao",
								"ver",
								"1"
							]
						}
					},
					"response": []
				},
				{
					"name": "UpdateConsolidacao",
					"request": {
						"method": "PUT",
						"header": [],
						"body": {
							"mode": "raw",
							"raw": "{\n    \"saldoAtual\": 899\n}",
							"options": {
								"raw": {
									"language": "json"
								}
							}
						},
						"url": {
							"raw": "{{url}}/api/consolidacao/editar/1",
							"host": [
								"{{url}}"
							],
							"path": [
								"api",
								"consolidacao",
								"editar",
								"1"
							]
						}
					},
					"response": []
				}
			],
			"event": [
				{
					"listen": "prerequest",
					"script": {
						"id": "f530eb74-17e2-4c80-b94e-4a7aee2ac521",
						"type": "text/javascript",
						"exec": [
							""
						]
					}
				},
				{
					"listen": "test",
					"script": {
						"id": "a5e9780b-0409-4e18-800e-516829fda699",
						"type": "text/javascript",
						"exec": [
							""
						]
					}
				}
			],
			"protocolProfileBehavior": {}
		},
		{
			"name": "Conta",
			"item": [
				{
					"name": "CriaNovoConta",
					"request": {
						"method": "POST",
						"header": [],
						"body": {
							"mode": "raw",
							"raw": "{\n    \"saldo\": 666\n}",
							"options": {
								"raw": {
									"language": "json"
								}
							}
						},
						"url": {
							"raw": "{{url}}/api/conta/novo",
							"host": [
								"{{url}}"
							],
							"path": [
								"api",
								"conta",
								"novo"
							]
						}
					},
					"response": []
				},
				{
					"name": "getTodosConta",
					"request": {
						"method": "GET",
						"header": [],
						"url": {
							"raw": "{{url}}/api/conta/todos",
							"host": [
								"{{url}}"
							],
							"path": [
								"api",
								"conta",
								"todos"
							]
						}
					},
					"response": []
				},
				{
					"name": "getContaPorId",
					"request": {
						"method": "GET",
						"header": [],
						"url": {
							"raw": "{{url}}/api/conta/ver/1",
							"host": [
								"{{url}}"
							],
							"path": [
								"api",
								"conta",
								"ver",
								"1"
							]
						}
					},
					"response": []
				},
				{
					"name": "UpdateConta",
					"request": {
						"method": "PUT",
						"header": [],
						"body": {
							"mode": "raw",
							"raw": "{\n    \"saldoAtual\": 899\n}",
							"options": {
								"raw": {
									"language": "json"
								}
							}
						},
						"url": {
							"raw": "{{url}}/api/conta/editar/1",
							"host": [
								"{{url}}"
							],
							"path": [
								"api",
								"conta",
								"editar",
								"1"
							]
						}
					},
					"response": []
				}
			],
			"event": [
				{
					"listen": "prerequest",
					"script": {
						"id": "6489dabe-18e0-404f-bd83-c767e39dfa97",
						"type": "text/javascript",
						"exec": [
							""
						]
					}
				},
				{
					"listen": "test",
					"script": {
						"id": "84bf7ca8-2b8c-478a-93d2-86446b014d8c",
						"type": "text/javascript",
						"exec": [
							""
						]
					}
				}
			],
			"protocolProfileBehavior": {}
		},
		{
			"name": "ContaTipo",
			"item": [
				{
					"name": "CriaNovoContaTipo",
					"request": {
						"method": "POST",
						"header": [],
						"body": {
							"mode": "raw",
							"raw": "{\n    \"nome\": \"salario\"\n}",
							"options": {
								"raw": {
									"language": "json"
								}
							}
						},
						"url": {
							"raw": "{{url}}/api/tipoconta/novo",
							"host": [
								"{{url}}"
							],
							"path": [
								"api",
								"tipoconta",
								"novo"
							]
						}
					},
					"response": []
				},
				{
					"name": "getTodosContaTipo",
					"request": {
						"method": "GET",
						"header": [],
						"url": {
							"raw": "{{url}}/api/tipoconta/todos",
							"host": [
								"{{url}}"
							],
							"path": [
								"api",
								"tipoconta",
								"todos"
							]
						}
					},
					"response": []
				},
				{
					"name": "getContaTipoPorId",
					"request": {
						"method": "GET",
						"header": [],
						"url": {
							"raw": "{{url}}/api/tipoconta/ver/1",
							"host": [
								"{{url}}"
							],
							"path": [
								"api",
								"tipoconta",
								"ver",
								"1"
							]
						}
					},
					"response": []
				},
				{
					"name": "UpdateContaTipo",
					"request": {
						"method": "PUT",
						"header": [],
						"body": {
							"mode": "raw",
							"raw": "{\n    \"saldoAtual\": 899\n}",
							"options": {
								"raw": {
									"language": "json"
								}
							}
						},
						"url": {
							"raw": "{{url}}/api/tipoconta/editar/1",
							"host": [
								"{{url}}"
							],
							"path": [
								"api",
								"tipoconta",
								"editar",
								"1"
							]
						}
					},
					"response": []
				}
			],
			"event": [
				{
					"listen": "prerequest",
					"script": {
						"id": "2d0186eb-321c-4c28-ac0c-503ccf304322",
						"type": "text/javascript",
						"exec": [
							""
						]
					}
				},
				{
					"listen": "test",
					"script": {
						"id": "e3d1c6c4-c129-49d3-a8c5-84b6f3e1f81f",
						"type": "text/javascript",
						"exec": [
							""
						]
					}
				}
			],
			"protocolProfileBehavior": {}
		},
		{
			"name": "Movimentacoes",
			"item": [
				{
					"name": "CriaNovoMovimentacao",
					"request": {
						"method": "POST",
						"header": [],
						"body": {
							"mode": "raw",
							"raw": "{\n    \"nome\": \"salario\"\n}",
							"options": {
								"raw": {
									"language": "json"
								}
							}
						},
						"url": {
							"raw": "{{url}}/api/movimentacao/novo",
							"host": [
								"{{url}}"
							],
							"path": [
								"api",
								"movimentacao",
								"novo"
							]
						}
					},
					"response": []
				},
				{
					"name": "getTodosMovimentacao",
					"request": {
						"method": "GET",
						"header": [],
						"url": {
							"raw": "{{url}}/api/movimentacao/todos",
							"host": [
								"{{url}}"
							],
							"path": [
								"api",
								"movimentacao",
								"todos"
							]
						}
					},
					"response": []
				},
				{
					"name": "getMovimentacaoPorId",
					"request": {
						"method": "GET",
						"header": [],
						"url": {
							"raw": "{{url}}/api/movimentacao/ver/1",
							"host": [
								"{{url}}"
							],
							"path": [
								"api",
								"movimentacao",
								"ver",
								"1"
							]
						}
					},
					"response": []
				},
				{
					"name": "UpdateMovimentacao",
					"request": {
						"method": "PUT",
						"header": [],
						"body": {
							"mode": "raw",
							"raw": "{\n    \"saldoAtual\": 899\n}",
							"options": {
								"raw": {
									"language": "json"
								}
							}
						},
						"url": {
							"raw": "{{url}}/api/movimentacao/editar/1",
							"host": [
								"{{url}}"
							],
							"path": [
								"api",
								"movimentacao",
								"editar",
								"1"
							]
						}
					},
					"response": []
				}
			],
			"event": [
				{
					"listen": "prerequest",
					"script": {
						"id": "c42d2789-2bcb-467a-884b-bb08c5c88217",
						"type": "text/javascript",
						"exec": [
							""
						]
					}
				},
				{
					"listen": "test",
					"script": {
						"id": "e9ccf167-8ed8-4e27-afa0-e5bb28359d37",
						"type": "text/javascript",
						"exec": [
							""
						]
					}
				}
			],
			"protocolProfileBehavior": {}
		}
	],
	"event": [
		{
			"listen": "prerequest",
			"script": {
				"id": "7f4a14ac-8497-4684-af1b-e1ef4bf5684f",
				"type": "text/javascript",
				"exec": [
					""
				]
			}
		},
		{
			"listen": "test",
			"script": {
				"id": "8badcd7e-c0ab-46e8-9dbf-741a0ab64180",
				"type": "text/javascript",
				"exec": [
					""
				]
			}
		}
	],
	"variable": [
		{
			"id": "5ebe9cb5-4c14-4db2-a325-8d4b043b8bee",
			"key": "url",
			"value": "localhost:8080"
		}
	],
	"protocolProfileBehavior": {}
}